<?xml version="1.0" encoding="UTF-8"?>
<svg width="37px" height="37px" viewBox="0 0 37 37" version="1.1" xmlns="http://www.w3.org/2000/svg" xmlns:xlink="http://www.w3.org/1999/xlink">
    <!-- Generator: Sketch 43.1 (39012) - http://www.bohemiancoding.com/sketch -->
    <title>Facebook</title>
    <desc>Created with Sketch.</desc>
    <defs></defs>
    <g id="Page-1" stroke="none" stroke-width="1" fill="none" fill-rule="evenodd">
        <g id="Sizin_Avropa-2" transform="translate(-1010.000000, -1055.000000)" fill-rule="nonzero" fill="#FFFFFF">
            <g id="social_panel" transform="translate(986.000000, 958.000000)">
                <g id="facebook" transform="translate(8.000000, 87.000000)">
                    <path d="M18.8093539,46.9719626 C17.7116847,46.9719626 16.8224299,46.0821566 16.8224299,44.9849149 L16.8224299,12.9588709 C16.8224299,11.8613501 17.7118242,10.9719626 18.8093539,10.9719626 L50.8356462,10.9719626 C51.9328962,10.9719626 52.8224299,11.8613501 52.8224299,12.9588709 L52.8224299,44.9849149 C52.8224299,46.0822961 51.9327567,46.9719626 50.8356462,46.9719626 L41.6619087,46.9719626 L41.6619087,33.0307789 L46.3413207,33.0307789 L47.0419962,27.5976521 L41.6619087,27.5976521 L41.6619087,24.1289434 C41.6619087,22.5559279 42.0987139,21.4839701 44.3543974,21.4839701 L47.2314132,21.4827124 L47.2314132,16.6232809 C46.7338444,16.5570686 45.0260179,16.4091401 43.0390939,16.4091401 C38.8910554,16.4091401 36.0511962,18.9411071 36.0511962,23.5908694 L36.0511962,27.5976521 L31.3597714,27.5976521 L31.3597714,33.0307789 L36.0511962,33.0307789 L36.0511962,46.9719626 L18.8093539,46.9719626 Z" id="Facebook"></path>
                </g>
            </g>
        </g>
    </g>
</svg>